{
  "development": {
    "username": "a360",
    "password": "a360@dev",
    "database": "letter_box_dev"
  },
  "test": {
    "username": "abhishek360",
    "password": "Database@12345",
    "database": "letter_box_test"
  },
  "production": {
    "username": "abhishek360",
    "password": "Database@12345",
    "database": "letter_box_prod"
  }
}
